## Autogenerated by Scribe. DO NOT MODIFY.

name: Документы
description: |-

  API для работы с документами пользователя - получение списка и детальной информации
endpoints:
  -
    httpMethods:
      - GET
    uri: api/v1/documents
    metadata:
      groupName: Документы
      groupDescription: |-

        API для работы с документами пользователя - получение списка и детальной информации
      subgroup: ''
      subgroupDescription: ''
      title: 'Получить список документов пользователя'
      description: 'Возвращает список документов, доступных пользователю (собственные и по ролям) с пагинацией'
      authenticated: true
      custom: []
    headers:
      Authorization: 'Bearer {ВАШ_ТОКЕН}'
      Content-Type: application/json
      Accept: application/json
    urlParameters: []
    cleanUrlParameters: []
    queryParameters:
      per_page:
        name: per_page
        description: 'Количество документов на страницу (по умолчанию 15, максимум 100)'
        required: false
        example: 15
        type: integer
        enumValues: []
        exampleWasSpecified: true
        nullable: false
        custom: []
      page:
        name: page
        description: 'Номер страницы (по умолчанию 1)'
        required: false
        example: 1
        type: integer
        enumValues: []
        exampleWasSpecified: true
        nullable: false
        custom: []
    cleanQueryParameters:
      per_page: 15
      page: 1
    bodyParameters:
      per_page:
        name: per_page
        description: 'Must be at least 1. Must not be greater than 100.'
        required: false
        example: 1
        type: integer
        enumValues: []
        exampleWasSpecified: false
        nullable: false
        custom: []
      page:
        name: page
        description: 'Must be at least 1.'
        required: false
        example: 22
        type: integer
        enumValues: []
        exampleWasSpecified: false
        nullable: false
        custom: []
      'POST api/v1/chat/send':
        name: 'POST api/v1/chat/send'
        description: null
        required: false
        example: null
        type: string
        enumValues: []
        exampleWasSpecified: false
        nullable: false
        custom: []
    cleanBodyParameters:
      per_page: 1
      page: 22
    fileParameters: []
    responses:
      -
        status: 200
        content: |-
          {
            "success": true,
            "data": {
              "documents": [
                {
                  "id": 1,
                  "title": "Документ 1",
                  "file_type": "pdf",
                  "embeddings_generated": true,
                  "created_at": "2023-12-01T08:00:00.000000Z",
                  "updated_at": "2023-12-01T08:30:00.000000Z",
                  "owner": {
                    "id": 1,
                    "name": "John Doe"
                  },
                  "roles": [
                    {
                      "id": 1,
                      "name": "admin"
                    }
                  ]
                }
              ],
              "pagination": {
                "current_page": 1,
                "per_page": 15,
                "total": 25,
                "last_page": 2,
                "has_more_pages": true
              }
            }
          }
        headers: []
        description: ''
        custom: []
    responseFields: []
    auth:
      - headers
      - Authorization
      - 'Bearer 6g43cv8PD1aE5beadkZfhV6'
    controller: null
    method: null
    route: null
    custom: []
  -
    httpMethods:
      - GET
    uri: 'api/v1/documents/{id}'
    metadata:
      groupName: Документы
      groupDescription: |-

        API для работы с документами пользователя - получение списка и детальной информации
      subgroup: ''
      subgroupDescription: ''
      title: 'Получить конкретный документ'
      description: 'Возвращает детальную информацию о конкретном документе, если у пользователя есть к нему доступ'
      authenticated: true
      custom: []
    headers:
      Authorization: 'Bearer {ВАШ_ТОКЕН}'
      Content-Type: application/json
      Accept: application/json
    urlParameters:
      id:
        name: id
        description: 'ID документа'
        required: true
        example: 1
        type: integer
        enumValues: []
        exampleWasSpecified: true
        nullable: false
        custom: []
    cleanUrlParameters:
      id: 1
    queryParameters: []
    cleanQueryParameters: []
    bodyParameters:
      'POST api/v1/chat/send':
        name: 'POST api/v1/chat/send'
        description: null
        required: false
        example: null
        type: string
        enumValues: []
        exampleWasSpecified: false
        nullable: false
        custom: []
    cleanBodyParameters: []
    fileParameters: []
    responses:
      -
        status: 200
        content: |-
          {
            "success": true,
            "data": {
              "document": {
                "id": 1,
                "title": "Документ 1",
                "google_docs_url": "https://docs.google.com/document/d/...",
                "content": "Содержимое документа...",
                "file_path": "/path/to/file.pdf",
                "file_type": "pdf",
                "embeddings_generated": true,
                "created_at": "2023-12-01T08:00:00.000000Z",
                "updated_at": "2023-12-01T08:30:00.000000Z",
                "owner": {
                  "id": 1,
                  "name": "John Doe"
                },
                "roles": [
                  {
                    "id": 1,
                    "name": "admin"
                  }
                ],
                "embeddings_count": 15
              }
            }
          }
        headers: []
        description: ''
        custom: []
      -
        status: 404
        content: |-
          {
            "success": false,
            "message": "Документ не найден или нет доступа"
          }
        headers: []
        description: ''
        custom: []
    responseFields: []
    auth:
      - headers
      - Authorization
      - 'Bearer 6g43cv8PD1aE5beadkZfhV6'
    controller: null
    method: null
    route: null
    custom: []
